[api-updater (non-obsolete-error-filter)] 4/15/2021 5:48:29 PM : Starting /Applications/Unity/Hub/Editor/2020.3.4f1/Unity.app/Contents/Tools/ScriptUpdater/APIUpdater.NonObsoleteApiUpdaterDetector.exe
[api-updater (non-obsolete-error-filter)] 
----------------------------------
jit/startup time      : 75.73ms
moved types parse time: 49ms
candidates parse time : 1ms
C# parse time         : 266ms
candidates check time : 42ms
console write time    : 0ms

[api-updater (non-obsolete-error-filter)] 4/15/2021 5:49:06 PM : Starting /Applications/Unity/Hub/Editor/2020.3.4f1/Unity.app/Contents/Tools/ScriptUpdater/APIUpdater.NonObsoleteApiUpdaterDetector.exe
[api-updater (non-obsolete-error-filter)] 
----------------------------------
jit/startup time      : 56.57ms
moved types parse time: 47ms
candidates parse time : 1ms
C# parse time         : 231ms
candidates check time : 42ms
console write time    : 0ms

[api-updater (non-obsolete-error-filter)] 4/15/2021 5:51:48 PM : Starting /Applications/Unity/Hub/Editor/2020.3.4f1/Unity.app/Contents/Tools/ScriptUpdater/APIUpdater.NonObsoleteApiUpdaterDetector.exe
[api-updater (non-obsolete-error-filter)] 
----------------------------------
jit/startup time      : 52.318ms
moved types parse time: 53ms
candidates parse time : 1ms
C# parse time         : 233ms
candidates check time : 46ms
console write time    : 0ms

[api-updater (non-obsolete-error-filter)] 4/15/2021 5:52:03 PM : Starting /Applications/Unity/Hub/Editor/2020.3.4f1/Unity.app/Contents/Tools/ScriptUpdater/APIUpdater.NonObsoleteApiUpdaterDetector.exe
[api-updater (non-obsolete-error-filter)] 
----------------------------------
jit/startup time      : 49.973ms
moved types parse time: 54ms
candidates parse time : 2ms
C# parse time         : 262ms
candidates check time : 48ms
console write time    : 0ms

[api-updater (non-obsolete-error-filter)] 4/15/2021 6:24:50 PM : Starting /Applications/Unity/Hub/Editor/2020.3.4f1/Unity.app/Contents/Tools/ScriptUpdater/APIUpdater.NonObsoleteApiUpdaterDetector.exe
[api-updater (non-obsolete-error-filter)] 
----------------------------------
jit/startup time      : 45.896ms
moved types parse time: 50ms
candidates parse time : 1ms
C# parse time         : 237ms
candidates check time : 42ms
console write time    : 0ms

[api-updater (non-obsolete-error-filter)] 4/15/2021 6:25:02 PM : Starting /Applications/Unity/Hub/Editor/2020.3.4f1/Unity.app/Contents/Tools/ScriptUpdater/APIUpdater.NonObsoleteApiUpdaterDetector.exe
[api-updater (non-obsolete-error-filter)] 
----------------------------------
jit/startup time      : 57.311ms
moved types parse time: 52ms
candidates parse time : 1ms
C# parse time         : 236ms
candidates check time : 43ms
console write time    : 0ms

[api-updater (non-obsolete-error-filter)] 4/15/2021 6:27:43 PM : Starting /Applications/Unity/Hub/Editor/2020.3.4f1/Unity.app/Contents/Tools/ScriptUpdater/APIUpdater.NonObsoleteApiUpdaterDetector.exe
[api-updater (non-obsolete-error-filter)] 
----------------------------------
jit/startup time      : 66.545ms
moved types parse time: 51ms
candidates parse time : 1ms
C# parse time         : 243ms
candidates check time : 58ms
console write time    : 0ms

[api-updater (non-obsolete-error-filter)] 4/15/2021 6:29:00 PM : Starting /Applications/Unity/Hub/Editor/2020.3.4f1/Unity.app/Contents/Tools/ScriptUpdater/APIUpdater.NonObsoleteApiUpdaterDetector.exe
[api-updater (non-obsolete-error-filter)] 
----------------------------------
jit/startup time      : 48.335ms
moved types parse time: 51ms
candidates parse time : 1ms
C# parse time         : 232ms
candidates check time : 52ms
console write time    : 0ms

[api-updater (non-obsolete-error-filter)] 4/15/2021 6:30:14 PM : Starting /Applications/Unity/Hub/Editor/2020.3.4f1/Unity.app/Contents/Tools/ScriptUpdater/APIUpdater.NonObsoleteApiUpdaterDetector.exe
[api-updater (non-obsolete-error-filter)] Exception caught while loading types from /Users/pavelabdurakhimov/Desktop/dev/Mine/Holographica/Library/ScriptAssemblies/Unity.TextMeshPro.Editor.dll (some types may not be loaded)
	Exception of type 'System.Reflection.ReflectionTypeLoadException' was thrown.
	  at (wrapper managed-to-native) System.Reflection.Assembly.GetTypes(System.Reflection.Assembly,bool)
  at System.Reflection.Assembly.GetTypes () [0x00000] in <695d1cc93cca45069c528c15c9fdd749>:0 
  at APIUpdater.NonObsoleteApiUpdaterDetector.ExtraInfoParser+<LoadTypesWithMovedFromAttributeAsync>d__3.MoveNext () [0x000c8] in <6358200448ef46218e7be4a1b6be469f>:0 
	Could not load file or assembly 'UnityEditor.CoreModule, Version=0.0.0.0, Culture=neutral, PublicKeyToken=null' or one of its dependencies.

[api-updater (non-obsolete-error-filter)] 
----------------------------------
jit/startup time      : 40.889ms
moved types parse time: 49ms
candidates parse time : 1ms
C# parse time         : 239ms
candidates check time : 56ms
console write time    : 0ms

[api-updater (non-obsolete-error-filter)] 4/15/2021 6:32:12 PM : Starting /Applications/Unity/Hub/Editor/2020.3.4f1/Unity.app/Contents/Tools/ScriptUpdater/APIUpdater.NonObsoleteApiUpdaterDetector.exe
[api-updater (non-obsolete-error-filter)] 
----------------------------------
jit/startup time      : 47.102ms
moved types parse time: 50ms
candidates parse time : 1ms
C# parse time         : 231ms
candidates check time : 53ms
console write time    : 0ms

[api-updater (non-obsolete-error-filter)] 4/15/2021 6:33:00 PM : Starting /Applications/Unity/Hub/Editor/2020.3.4f1/Unity.app/Contents/Tools/ScriptUpdater/APIUpdater.NonObsoleteApiUpdaterDetector.exe
[api-updater (non-obsolete-error-filter)] 
----------------------------------
jit/startup time      : 47.552ms
moved types parse time: 52ms
candidates parse time : 1ms
C# parse time         : 249ms
candidates check time : 58ms
console write time    : 0ms

[api-updater (non-obsolete-error-filter)] 4/15/2021 9:57:38 PM : Starting /Applications/Unity/Hub/Editor/2020.3.4f1/Unity.app/Contents/Tools/ScriptUpdater/APIUpdater.NonObsoleteApiUpdaterDetector.exe
[api-updater (non-obsolete-error-filter)] 
----------------------------------
jit/startup time      : 116.66ms
moved types parse time: 55ms
candidates parse time : 1ms
C# parse time         : 257ms
candidates check time : 58ms
console write time    : 0ms

[api-updater (non-obsolete-error-filter)] 4/16/2021 1:22:54 AM : Starting /Applications/Unity/Hub/Editor/2020.3.4f1/Unity.app/Contents/Tools/ScriptUpdater/APIUpdater.NonObsoleteApiUpdaterDetector.exe
[api-updater (non-obsolete-error-filter)] 
----------------------------------
jit/startup time      : 100.806ms
moved types parse time: 56ms
candidates parse time : 1ms
C# parse time         : 290ms
candidates check time : 44ms
console write time    : 0ms

[api-updater (non-obsolete-error-filter)] 4/16/2021 1:36:19 AM : Starting /Applications/Unity/Hub/Editor/2020.3.4f1/Unity.app/Contents/Tools/ScriptUpdater/APIUpdater.NonObsoleteApiUpdaterDetector.exe
[api-updater (non-obsolete-error-filter)] 
----------------------------------
jit/startup time      : 97.453ms
moved types parse time: 55ms
candidates parse time : 1ms
C# parse time         : 269ms
candidates check time : 45ms
console write time    : 0ms

[api-updater (non-obsolete-error-filter)] 4/16/2021 2:40:28 AM : Starting /Applications/Unity/Hub/Editor/2020.3.4f1/Unity.app/Contents/Tools/ScriptUpdater/APIUpdater.NonObsoleteApiUpdaterDetector.exe
[api-updater (non-obsolete-error-filter)] 
----------------------------------
jit/startup time      : 119.784ms
moved types parse time: 56ms
candidates parse time : 1ms
C# parse time         : 258ms
candidates check time : 44ms
console write time    : 0ms

[api-updater (non-obsolete-error-filter)] 4/16/2021 3:52:43 AM : Starting /Applications/Unity/Hub/Editor/2020.3.4f1/Unity.app/Contents/Tools/ScriptUpdater/APIUpdater.NonObsoleteApiUpdaterDetector.exe
[api-updater (non-obsolete-error-filter)] 
----------------------------------
jit/startup time      : 51.106ms
moved types parse time: 52ms
candidates parse time : 1ms
C# parse time         : 220ms
candidates check time : 85ms
console write time    : 0ms

[api-updater (non-obsolete-error-filter)] 4/16/2021 12:59:51 PM : Starting /Applications/Unity/Hub/Editor/2020.3.4f1/Unity.app/Contents/Tools/ScriptUpdater/APIUpdater.NonObsoleteApiUpdaterDetector.exe
[api-updater (non-obsolete-error-filter)] 
----------------------------------
jit/startup time      : 478.04ms
moved types parse time: 61ms
candidates parse time : 1ms
C# parse time         : 312ms
candidates check time : 45ms
console write time    : 0ms

[api-updater (non-obsolete-error-filter)] 4/16/2021 1:41:10 PM : Starting /Applications/Unity/Hub/Editor/2020.3.4f1/Unity.app/Contents/Tools/ScriptUpdater/APIUpdater.NonObsoleteApiUpdaterDetector.exe
[api-updater (non-obsolete-error-filter)] 
----------------------------------
jit/startup time      : 133.235ms
moved types parse time: 55ms
candidates parse time : 1ms
C# parse time         : 271ms
candidates check time : 40ms
console write time    : 0ms

[api-updater (non-obsolete-error-filter)] 4/16/2021 1:42:17 PM : Starting /Applications/Unity/Hub/Editor/2020.3.4f1/Unity.app/Contents/Tools/ScriptUpdater/APIUpdater.NonObsoleteApiUpdaterDetector.exe
[api-updater (non-obsolete-error-filter)] 
----------------------------------
jit/startup time      : 71.483ms
moved types parse time: 49ms
candidates parse time : 1ms
C# parse time         : 229ms
candidates check time : 37ms
console write time    : 0ms

[api-updater (non-obsolete-error-filter)] 4/16/2021 1:43:00 PM : Starting /Applications/Unity/Hub/Editor/2020.3.4f1/Unity.app/Contents/Tools/ScriptUpdater/APIUpdater.NonObsoleteApiUpdaterDetector.exe
[api-updater (non-obsolete-error-filter)] 
----------------------------------
jit/startup time      : 72.465ms
moved types parse time: 55ms
candidates parse time : 1ms
C# parse time         : 236ms
candidates check time : 37ms
console write time    : 0ms

[api-updater (non-obsolete-error-filter)] 4/16/2021 1:43:14 PM : Starting /Applications/Unity/Hub/Editor/2020.3.4f1/Unity.app/Contents/Tools/ScriptUpdater/APIUpdater.NonObsoleteApiUpdaterDetector.exe
[api-updater (non-obsolete-error-filter)] 
----------------------------------
jit/startup time      : 66.036ms
moved types parse time: 49ms
candidates parse time : 1ms
C# parse time         : 232ms
candidates check time : 56ms
console write time    : 0ms

[api-updater (non-obsolete-error-filter)] 4/16/2021 4:27:31 PM : Starting /Applications/Unity/Hub/Editor/2020.3.4f1/Unity.app/Contents/Tools/ScriptUpdater/APIUpdater.NonObsoleteApiUpdaterDetector.exe
[api-updater (non-obsolete-error-filter)] 
----------------------------------
jit/startup time      : 126.939ms
moved types parse time: 55ms
candidates parse time : 1ms
C# parse time         : 238ms
candidates check time : 31ms
console write time    : 0ms

[api-updater (non-obsolete-error-filter)] 4/16/2021 4:28:29 PM : Starting /Applications/Unity/Hub/Editor/2020.3.4f1/Unity.app/Contents/Tools/ScriptUpdater/APIUpdater.NonObsoleteApiUpdaterDetector.exe
[api-updater (non-obsolete-error-filter)] 
----------------------------------
jit/startup time      : 66.653ms
moved types parse time: 48ms
candidates parse time : 1ms
C# parse time         : 241ms
candidates check time : 31ms
console write time    : 0ms

[api-updater (non-obsolete-error-filter)] 4/17/2021 4:04:04 AM : Starting /Applications/Unity/Hub/Editor/2020.3.4f1/Unity.app/Contents/Tools/ScriptUpdater/APIUpdater.NonObsoleteApiUpdaterDetector.exe
[api-updater (non-obsolete-error-filter)] 
----------------------------------
jit/startup time      : 237.331ms
moved types parse time: 54ms
candidates parse time : 1ms
C# parse time         : 251ms
candidates check time : 33ms
console write time    : 0ms

[api-updater (non-obsolete-error-filter)] 10/30/2021 2:01:30 AM : Starting /Applications/Unity/Hub/Editor/2020.3.21f1/Unity.app/Contents/Tools/ScriptUpdater/APIUpdater.NonObsoleteApiUpdaterDetector.exe
[api-updater (non-obsolete-error-filter)] 
----------------------------------
jit/startup time      : 188.834ms
moved types parse time: 86ms
candidates parse time : 2ms
C# parse time         : 442ms
candidates check time : 66ms
console write time    : 0ms

[api-updater (non-obsolete-error-filter)] 12/18/2021 3:59:04 AM : Starting /Applications/Unity/Hub/Editor/2020.3.25f1/Unity.app/Contents/Tools/ScriptUpdater/APIUpdater.NonObsoleteApiUpdaterDetector.exe
[api-updater (non-obsolete-error-filter)] 
----------------------------------
jit/startup time      : 96.956ms
moved types parse time: 58ms
candidates parse time : 2ms
C# parse time         : 336ms
candidates check time : 75ms
console write time    : 0ms

[api-updater (non-obsolete-error-filter)] 12/18/2021 2:43:29 PM : Starting /Applications/Unity/Hub/Editor/2020.3.25f1/Unity.app/Contents/Tools/ScriptUpdater/APIUpdater.NonObsoleteApiUpdaterDetector.exe
[api-updater (non-obsolete-error-filter)] 
----------------------------------
jit/startup time      : 144.118ms
moved types parse time: 59ms
candidates parse time : 1ms
C# parse time         : 326ms
candidates check time : 50ms
console write time    : 0ms

[api-updater (non-obsolete-error-filter)] 12/26/2021 9:53:16 PM : Starting /Applications/Unity/Hub/Editor/2020.3.25f1/Unity.app/Contents/Tools/ScriptUpdater/APIUpdater.NonObsoleteApiUpdaterDetector.exe
[api-updater (non-obsolete-error-filter)] 
----------------------------------
jit/startup time      : 119.754ms
moved types parse time: 55ms
candidates parse time : 1ms
C# parse time         : 306ms
candidates check time : 181ms
console write time    : 2ms

[api-updater (non-obsolete-error-filter)] 12/26/2021 9:56:33 PM : Starting /Applications/Unity/Hub/Editor/2020.3.25f1/Unity.app/Contents/Tools/ScriptUpdater/APIUpdater.NonObsoleteApiUpdaterDetector.exe
[api-updater (non-obsolete-error-filter)] 
----------------------------------
jit/startup time      : 54.876ms
moved types parse time: 49ms
candidates parse time : 1ms
C# parse time         : 251ms
candidates check time : 156ms
console write time    : 0ms

[api-updater (non-obsolete-error-filter)] 12/26/2021 10:12:18 PM : Starting /Applications/Unity/Hub/Editor/2020.3.25f1/Unity.app/Contents/Tools/ScriptUpdater/APIUpdater.NonObsoleteApiUpdaterDetector.exe
[api-updater (non-obsolete-error-filter)] 
----------------------------------
jit/startup time      : 61.853ms
moved types parse time: 48ms
candidates parse time : 1ms
C# parse time         : 258ms
candidates check time : 154ms
console write time    : 0ms

[api-updater (non-obsolete-error-filter)] 12/27/2021 12:53:15 AM : Starting /Applications/Unity/Hub/Editor/2020.3.25f1/Unity.app/Contents/Tools/ScriptUpdater/APIUpdater.NonObsoleteApiUpdaterDetector.exe
[api-updater (non-obsolete-error-filter)] 
----------------------------------
jit/startup time      : 226.282ms
moved types parse time: 66ms
candidates parse time : 1ms
C# parse time         : 342ms
candidates check time : 56ms
console write time    : 1ms

[api-updater (non-obsolete-error-filter)] 12/27/2021 3:13:58 AM : Starting /Applications/Unity/Hub/Editor/2020.3.25f1/Unity.app/Contents/Tools/ScriptUpdater/APIUpdater.NonObsoleteApiUpdaterDetector.exe
[api-updater (non-obsolete-error-filter)] 
----------------------------------
jit/startup time      : 254.204ms
moved types parse time: 53ms
candidates parse time : 1ms
C# parse time         : 320ms
candidates check time : 43ms
console write time    : 1ms

[api-updater (non-obsolete-error-filter)] 12/27/2021 3:22:35 AM : Starting /Applications/Unity/Hub/Editor/2020.3.25f1/Unity.app/Contents/Tools/ScriptUpdater/APIUpdater.NonObsoleteApiUpdaterDetector.exe
[api-updater (non-obsolete-error-filter)] 
----------------------------------
jit/startup time      : 182.626ms
moved types parse time: 47ms
candidates parse time : 1ms
C# parse time         : 249ms
candidates check time : 42ms
console write time    : 0ms

[api-updater (non-obsolete-error-filter)] 12/27/2021 3:24:35 AM : Starting /Applications/Unity/Hub/Editor/2020.3.25f1/Unity.app/Contents/Tools/ScriptUpdater/APIUpdater.NonObsoleteApiUpdaterDetector.exe
[api-updater (non-obsolete-error-filter)] 
----------------------------------
jit/startup time      : 247.476ms
moved types parse time: 59ms
candidates parse time : 1ms
C# parse time         : 334ms
candidates check time : 44ms
console write time    : 1ms

[api-updater (non-obsolete-error-filter)] 1/21/2022 9:25:58 PM : Starting /Applications/Unity/Hub/Editor/2020.3.25f1/Unity.app/Contents/Tools/ScriptUpdater/APIUpdater.NonObsoleteApiUpdaterDetector.exe
[api-updater (non-obsolete-error-filter)] 
----------------------------------
jit/startup time      : 208.034ms
moved types parse time: 48ms
candidates parse time : 1ms
C# parse time         : 316ms
candidates check time : 39ms
console write time    : 0ms

[api-updater (non-obsolete-error-filter)] 1/21/2022 9:26:34 PM : Starting /Applications/Unity/Hub/Editor/2020.3.25f1/Unity.app/Contents/Tools/ScriptUpdater/APIUpdater.NonObsoleteApiUpdaterDetector.exe
[api-updater (non-obsolete-error-filter)] 
----------------------------------
jit/startup time      : 135.008ms
moved types parse time: 48ms
candidates parse time : 1ms
C# parse time         : 257ms
candidates check time : 37ms
console write time    : 0ms

